{
      "dev_olioa": {
        "apigateway_enabled": false,
        "s3_bucket": "pointsolution.dev",
        "app_function": "func.app",
        "aws_region": "ap-northeast-1",
        "api_key_required": false,
        "profile_name" : "dev_olioa",
        "environment_variables": {
            "SQLALCHEMY_DATABASE_URI": "mysql://point:VN201501@point.crygr0uwyp5o.ap-northeast-1.rds.amazonaws.com:3306/point",
            "Server_Type" : "DEV",
            "REDIS_URL" : "redis://54.92.40.147:6379/0"
        }
    },

    "prod_olioa": {
        "apigateway_enabled": false,
        "s3_bucket": "waterkuru",
        "app_function": "func.app",
        "aws_region": "ap-northeast-1",
        "api_key_required": false,
        "profile_name" : "dev_olioa",
        "environment_variables": {
            "SQLALCHEMY_DATABASE_URI": "mysql://root:VN201501@waterkurudbinstance.cltokztxmxeu.ap-northeast-1.rds.amazonaws.com:3306/waterkuru",
            "Server_Type" : "PROD",
            "REDIS_URL" : "redis://13.113.185.172:6379/0"
        }
    },

    "prod": {
        "apigateway_enabled": false,
        "s3_bucket": "waterkuru",
        "app_function": "func.app",
        "aws_region": "ap-northeast-1",
        "api_key_required": false,
        "profile_name" : "forprod",
        "environment_variables": {
            "SQLALCHEMY_DATABASE_URI": "mysql://root:VN201501@waterkurudbinstance.cltokztxmxeu.ap-northeast-1.rds.amazonaws.com:3306/waterkuru",
            "Server_Type" : "PROD",
            "REDIS_URL" : "redis://13.113.185.172:6379/0"
        }
    },

    "dev": {
        "apigateway_enabled": false,
        "s3_bucket": "pointsolution.dev",
        "app_function": "func.app",
        "aws_region": "ap-northeast-1",
        "api_key_required": false,
        "profile_name" : "fordev",
        "environment_variables": {
            "SQLALCHEMY_DATABASE_URI": "mysql://point:VN201501@point.crygr0uwyp5o.ap-northeast-1.rds.amazonaws.com:3306/point",
            "Server_Type" : "DEV",
            "REDIS_URL" : "redis://54.92.40.147:6379/0"
        }
    },

    "stagging": {
        "apigateway_enabled": false,
        "s3_bucket": "pointsolution.dev",
        "app_function": "func.app",
        "aws_region": "ap-northeast-1",
        "api_key_required": false,
        "profile_name" : "fordev",
        "environment_variables": {
            "SQLALCHEMY_DATABASE_URI": "mysql://point:VN201501@point.crygr0uwyp5o.ap-northeast-1.rds.amazonaws.com:3306/point_stagging"
        }
    },

    "dontuse": {
        "apigateway_enabled": false,
        "app_function": "abceedapi.app",
        "s3_bucket": "abceed.source.tokyo",
        "aws_region": "ap-northeast-1",
        "api_key_required": false,
        "http_methods": ["GET", "PUT", "POST", "DELETE"],
        "iam_authorization": true,
        "vpc_config": {
            "SubnetIds": [ "subnet-a126edd7", "subnet-db2e3682" ],
            "SecurityGroupIds": [ "sg-9d6940f9" ]
        },
        "integration_response_codes": [200, 301, 404, 500],
        "integration_content_type_aliases": {
            "application/json": [
                "application/vnd.webhooks+json"
            ]
        },
        "method_response_codes": [200, 201, 301, 401, 403, 404, 500, 501],
        "method_header_types": [
            "Content-Type",
            "Location",
            "Status",
            "X-Frame-Options",
            "Set-Cookie",
            "Access-Control-Allow-Origin",
            "Access-Control-Allow-Headers",
            "Access-Control-Allow-Methods"
        ],
        "environment_variables": {
            "SQLALCHEMY_DATABASE_URI": "mysql://globee:Globee612@abceed-db.c0pvfeqpfvfq.ap-northeast-1.rds.amazonaws.com:3306/abceed_db_dev",
            "REDIS_URL": "redis://abceed-cache.pfzgae.0001.apne1.cache.amazonaws.com:6379/0",
            "ENV": "AWS"
        },
        "events": [{
            "function": "abceedapi.scheduler.load_analytics_avg_scores",
            "expression": "rate(1 day)"
        },{
            "function": "abceedapi.scheduler.calc_toeic_avg",
            "expression": "rate(1 day)"
        },{
            "function": "abceedapi.scheduler.calc_user_level",
            "expression": "rate(1 day)"
        }],
        "manage_roles": false,
        "role_name": "abceed_lambda"
    }
}